{
  "aerialway_11": {
    "height": 30,
    "pixelRatio": 2,
    "width": 30,
    "x": 848,
    "y": 0
  },
  "aerialway_15": {
    "height": 38,
    "pixelRatio": 2,
    "width": 38,
    "x": 440,
    "y": 450
  },
  "airfield_11": {
    "height": 30,
    "pixelRatio": 2,
    "width": 30,
    "x": 878,
    "y": 0
  },
  "airfield_15": {
    "height": 38,
    "pixelRatio": 2,
    "width": 38,
    "x": 480,
    "y": 170
  },
  "airport_11": {
    "height": 30,
    "pixelRatio": 2,
    "width": 30,
    "x": 908,
    "y": 0
  },
  "airport_15": {
    "height": 38,
    "pixelRatio": 2,
    "width": 38,
    "x": 518,
    "y": 170
  },
  "alcohol_shop_11": {
    "height": 32,
    "pixelRatio": 2,
    "width": 32,
    "x": 582,
    "y": 290
  },
  "alcohol_shop_15": {
    "height": 40,
    "pixelRatio": 2,
    "width": 40,
    "x": 210,
    "y": 128
  },
  "america_football_11": {
    "height": 32,
    "pixelRatio": 2,
    "width": 32,
    "x": 614,
    "y": 290
  },
  "america_football_15": {
    "height": 40,
    "pixelRatio": 2,
    "width": 40,
    "x": 0,
    "y": 170
  },
  "amusement_park_11": {
    "height": 32,
    "pixelRatio": 2,
    "width": 32,
    "x": 646,
    "y": 290
  },
  "amusement_park_15": {
    "height": 40,
    "pixelRatio": 2,
    "width": 40,
    "x": 40,
    "y": 170
  },
  "aquarium_11": {
    "height": 32,
    "pixelRatio": 2,
    "width": 32,
    "x": 678,
    "y": 290
  },
  "aquarium_15": {
    "height": 40,
    "pixelRatio": 2,
    "width": 40,
    "x": 80,
    "y": 170
  },
  "art_gallery_11": {
    "height": 32,
    "pixelRatio": 2,
    "width": 32,
    "x": 710,
    "y": 290
  },
  "art_gallery_15": {
    "height": 40,
    "pixelRatio": 2,
    "width": 40,
    "x": 120,
    "y": 170
  },
  "atm2-11": {
    "height": 30,
    "pixelRatio": 2,
    "width": 30,
    "x": 938,
    "y": 0
  },
  "atm2-15": {
    "height": 38,
    "pixelRatio": 2,
    "width": 38,
    "x": 556,
    "y": 170
  },
  "atm2_11": {
    "height": 32,
    "pixelRatio": 2,
    "width": 32,
    "x": 742,
    "y": 290
  },
  "atm2_15": {
    "height": 40,
    "pixelRatio": 2,
    "width": 40,
    "x": 160,
    "y": 170
  },
  "attraction_11": {
    "height": 32,
    "pixelRatio": 2,
    "width": 32,
    "x": 774,
    "y": 290
  },
  "attraction_15": {
    "height": 40,
    "pixelRatio": 2,
    "width": 40,
    "x": 200,
    "y": 170
  },
  "bakery_11": {
    "height": 32,
    "pixelRatio": 2,
    "width": 32,
    "x": 806,
    "y": 290
  },
  "bakery_15": {
    "height": 40,
    "pixelRatio": 2,
    "width": 40,
    "x": 0,
    "y": 210
  },
  "bank_11": {
    "height": 32,
    "pixelRatio": 2,
    "width": 32,
    "x": 838,
    "y": 290
  },
  "bank_15": {
    "height": 40,
    "pixelRatio": 2,
    "width": 40,
    "x": 40,
    "y": 210
  },
  "bar_11": {
    "height": 32,
    "pixelRatio": 2,
    "width": 32,
    "x": 870,
    "y": 290
  },
  "bar_15": {
    "height": 40,
    "pixelRatio": 2,
    "width": 40,
    "x": 80,
    "y": 210
  },
  "baseball_11": {
    "height": 32,
    "pixelRatio": 2,
    "width": 32,
    "x": 902,
    "y": 290
  },
  "baseball_15": {
    "height": 40,
    "pixelRatio": 2,
    "width": 40,
    "x": 120,
    "y": 210
  },
  "basketball_11": {
    "height": 32,
    "pixelRatio": 2,
    "width": 32,
    "x": 934,
    "y": 290
  },
  "basketball_15": {
    "height": 40,
    "pixelRatio": 2,
    "width": 40,
    "x": 160,
    "y": 210
  },
  "beer_11": {
    "height": 32,
    "pixelRatio": 2,
    "width": 32,
    "x": 966,
    "y": 290
  },
  "beer_15": {
    "height": 40,
    "pixelRatio": 2,
    "width": 40,
    "x": 200,
    "y": 210
  },
  "bicycle_11": {
    "height": 32,
    "pixelRatio": 2,
    "width": 32,
    "x": 480,
    "y": 330
  },
  "bicycle_15": {
    "height": 40,
    "pixelRatio": 2,
    "width": 40,
    "x": 240,
    "y": 170
  },
  "bicycle_parked-11": {
    "height": 30,
    "pixelRatio": 2,
    "width": 30,
    "x": 968,
    "y": 0
  },
  "bicycle_parked-15": {
    "height": 38,
    "pixelRatio": 2,
    "width": 38,
    "x": 594,
    "y": 170
  },
  "bicycle_parked_11": {
    "height": 30,
    "pixelRatio": 2,
    "width": 30,
    "x": 0,
    "y": 490
  },
  "bicycle_parked_15": {
    "height": 38,
    "pixelRatio": 2,
    "width": 38,
    "x": 632,
    "y": 170
  },
  "bicycle_rental-11": {
    "height": 30,
    "pixelRatio": 2,
    "width": 30,
    "x": 30,
    "y": 490
  },
  "bicycle_rental-15": {
    "height": 38,
    "pixelRatio": 2,
    "width": 38,
    "x": 670,
    "y": 170
  },
  "bicycle_rental_11": {
    "height": 30,
    "pixelRatio": 2,
    "width": 30,
    "x": 60,
    "y": 490
  },
  "bicycle_rental_15": {
    "height": 38,
    "pixelRatio": 2,
    "width": 38,
    "x": 708,
    "y": 170
  },
  "bicycle_repair-11": {
    "height": 30,
    "pixelRatio": 2,
    "width": 30,
    "x": 90,
    "y": 490
  },
  "bicycle_repair-15": {
    "height": 38,
    "pixelRatio": 2,
    "width": 38,
    "x": 746,
    "y": 170
  },
  "bicycle_repair_11": {
    "height": 30,
    "pixelRatio": 2,
    "width": 30,
    "x": 120,
    "y": 490
  },
  "bicycle_repair_15": {
    "height": 38,
    "pixelRatio": 2,
    "width": 38,
    "x": 784,
    "y": 170
  },
  "building_11": {
    "height": 32,
    "pixelRatio": 2,
    "width": 32,
    "x": 512,
    "y": 330
  },
  "building_15": {
    "height": 40,
    "pixelRatio": 2,
    "width": 40,
    "x": 280,
    "y": 170
  },
  "bus_11": {
    "height": 30,
    "pixelRatio": 2,
    "width": 30,
    "x": 150,
    "y": 490
  },
  "bus_15": {
    "height": 38,
    "pixelRatio": 2,
    "width": 38,
    "x": 822,
    "y": 170
  },
  "butcher_11": {
    "height": 32,
    "pixelRatio": 2,
    "width": 32,
    "x": 544,
    "y": 330
  },
  "butcher_15": {
    "height": 40,
    "pixelRatio": 2,
    "width": 40,
    "x": 320,
    "y": 170
  },
  "cafe_11": {
    "height": 32,
    "pixelRatio": 2,
    "width": 32,
    "x": 576,
    "y": 330
  },
  "cafe_15": {
    "height": 40,
    "pixelRatio": 2,
    "width": 40,
    "x": 360,
    "y": 170
  },
  "campsite_11": {
    "height": 32,
    "pixelRatio": 2,
    "width": 32,
    "x": 608,
    "y": 330
  },
  "campsite_15": {
    "height": 40,
    "pixelRatio": 2,
    "width": 40,
    "x": 400,
    "y": 170
  },
  "car_11": {
    "height": 30,
    "pixelRatio": 2,
    "width": 30,
    "x": 180,
    "y": 490
  },
  "car_15": {
    "height": 38,
    "pixelRatio": 2,
    "width": 38,
    "x": 860,
    "y": 170
  },
  "castle_11": {
    "height": 32,
    "pixelRatio": 2,
    "width": 32,
    "x": 640,
    "y": 330
  },
  "castle_15": {
    "height": 40,
    "pixelRatio": 2,
    "width": 40,
    "x": 440,
    "y": 170
  },
  "cemetery_11": {
    "height": 32,
    "pixelRatio": 2,
    "width": 32,
    "x": 672,
    "y": 330
  },
  "cemetery_15": {
    "height": 40,
    "pixelRatio": 2,
    "width": 40,
    "x": 240,
    "y": 210
  },
  "cinema_11": {
    "height": 32,
    "pixelRatio": 2,
    "width": 32,
    "x": 704,
    "y": 330
  },
  "cinema_15": {
    "height": 40,
    "pixelRatio": 2,
    "width": 40,
    "x": 280,
    "y": 210
  },
  "circle-stroked_11": {
    "height": 34,
    "pixelRatio": 2,
    "width": 34,
    "x": 936,
    "y": 250
  },
  "circle-stroked_15": {
    "height": 42,
    "pixelRatio": 2,
    "width": 42,
    "x": 0,
    "y": 128
  },
  "circle_11": {
    "height": 32,
    "pixelRatio": 2,
    "width": 32,
    "x": 736,
    "y": 330
  },
  "circle_15": {
    "height": 40,
    "pixelRatio": 2,
    "width": 40,
    "x": 320,
    "y": 210
  },
  "circle_stroked_11": {
    "height": 32,
    "pixelRatio": 2,
    "width": 32,
    "x": 768,
    "y": 330
  },
  "circle_stroked_15": {
    "height": 40,
    "pixelRatio": 2,
    "width": 40,
    "x": 360,
    "y": 210
  },
  "clothing_store_11": {
    "height": 32,
    "pixelRatio": 2,
    "width": 32,
    "x": 800,
    "y": 330
  },
  "clothing_store_15": {
    "height": 40,
    "pixelRatio": 2,
    "width": 40,
    "x": 400,
    "y": 210
  },
  "college_11": {
    "height": 32,
    "pixelRatio": 2,
    "width": 32,
    "x": 832,
    "y": 330
  },
  "college_15": {
    "height": 40,
    "pixelRatio": 2,
    "width": 40,
    "x": 440,
    "y": 210
  },
  "commercial_11": {
    "height": 32,
    "pixelRatio": 2,
    "width": 32,
    "x": 864,
    "y": 330
  },
  "commercial_15": {
    "height": 40,
    "pixelRatio": 2,
    "width": 40,
    "x": 250,
    "y": 128
  },
  "cricket_11": {
    "height": 32,
    "pixelRatio": 2,
    "width": 32,
    "x": 896,
    "y": 330
  },
  "cricket_15": {
    "height": 40,
    "pixelRatio": 2,
    "width": 40,
    "x": 290,
    "y": 128
  },
  "cross_11": {
    "height": 32,
    "pixelRatio": 2,
    "width": 32,
    "x": 928,
    "y": 330
  },
  "cross_15": {
    "height": 40,
    "pixelRatio": 2,
    "width": 40,
    "x": 330,
    "y": 128
  },
  "dam_11": {
    "height": 32,
    "pixelRatio": 2,
    "width": 32,
    "x": 960,
    "y": 330
  },
  "dam_15": {
    "height": 40,
    "pixelRatio": 2,
    "width": 40,
    "x": 370,
    "y": 128
  },
  "danger_11": {
    "height": 32,
    "pixelRatio": 2,
    "width": 32,
    "x": 992,
    "y": 330
  },
  "danger_15": {
    "height": 40,
    "pixelRatio": 2,
    "width": 40,
    "x": 410,
    "y": 128
  },
  "deer_11": {
    "height": 32,
    "pixelRatio": 2,
    "width": 32,
    "x": 480,
    "y": 370
  },
  "deer_15": {
    "height": 40,
    "pixelRatio": 2,
    "width": 40,
    "x": 450,
    "y": 128
  },
  "default_1": {
    "height": 36,
    "pixelRatio": 2,
    "width": 36,
    "x": 518,
    "y": 250
  },
  "default_2": {
    "height": 36,
    "pixelRatio": 2,
    "width": 50,
    "x": 554,
    "y": 250
  },
  "default_3": {
    "height": 36,
    "pixelRatio": 2,
    "width": 64,
    "x": 604,
    "y": 250
  },
  "default_4": {
    "height": 36,
    "pixelRatio": 2,
    "width": 78,
    "x": 668,
    "y": 250
  },
  "default_5": {
    "height": 36,
    "pixelRatio": 2,
    "width": 90,
    "x": 746,
    "y": 250
  },
  "default_6": {
    "height": 36,
    "pixelRatio": 2,
    "width": 100,
    "x": 836,
    "y": 250
  },
  "dentist_11": {
    "height": 32,
    "pixelRatio": 2,
    "width": 32,
    "x": 512,
    "y": 370
  },
  "dentist_15": {
    "height": 40,
    "pixelRatio": 2,
    "width": 40,
    "x": 256,
    "y": 0
  },
  "doctor_11": {
    "height": 32,
    "pixelRatio": 2,
    "width": 32,
    "x": 544,
    "y": 370
  },
  "doctor_15": {
    "height": 40,
    "pixelRatio": 2,
    "width": 40,
    "x": 296,
    "y": 0
  },
  "dog_park_11": {
    "height": 32,
    "pixelRatio": 2,
    "width": 32,
    "x": 576,
    "y": 370
  },
  "dog_park_15": {
    "height": 40,
    "pixelRatio": 2,
    "width": 40,
    "x": 336,
    "y": 0
  },
  "dot_10": {
    "height": 20,
    "pixelRatio": 2,
    "width": 20,
    "x": 798,
    "y": 490
  },
  "dot_11": {
    "height": 22,
    "pixelRatio": 2,
    "width": 22,
    "x": 776,
    "y": 490
  },
  "dot_9": {
    "height": 18,
    "pixelRatio": 2,
    "width": 18,
    "x": 818,
    "y": 490
  },
  "drinking-water_11": {
    "height": 26,
    "pixelRatio": 2,
    "width": 26,
    "x": 750,
    "y": 490
  },
  "drinking_water_11": {
    "height": 34,
    "pixelRatio": 2,
    "width": 34,
    "x": 970,
    "y": 250
  },
  "drinking_water_15": {
    "height": 42,
    "pixelRatio": 2,
    "width": 42,
    "x": 42,
    "y": 128
  },
  "embassy_11": {
    "height": 32,
    "pixelRatio": 2,
    "width": 32,
    "x": 608,
    "y": 370
  },
  "embassy_15": {
    "height": 40,
    "pixelRatio": 2,
    "width": 40,
    "x": 376,
    "y": 0
  },
  "entrance_11": {
    "height": 30,
    "pixelRatio": 2,
    "width": 30,
    "x": 210,
    "y": 490
  },
  "entrance_15": {
    "height": 38,
    "pixelRatio": 2,
    "width": 38,
    "x": 898,
    "y": 170
  },
  "fast_food_11": {
    "height": 32,
    "pixelRatio": 2,
    "width": 32,
    "x": 640,
    "y": 370
  },
  "fast_food_15": {
    "height": 40,
    "pixelRatio": 2,
    "width": 40,
    "x": 416,
    "y": 0
  },
  "ferry_11": {
    "height": 30,
    "pixelRatio": 2,
    "width": 30,
    "x": 240,
    "y": 490
  },
  "ferry_15": {
    "height": 38,
    "pixelRatio": 2,
    "width": 38,
    "x": 936,
    "y": 170
  },
  "fire-station_11": {
    "height": 30,
    "pixelRatio": 2,
    "width": 30,
    "x": 270,
    "y": 490
  },
  "fire-station_15": {
    "height": 38,
    "pixelRatio": 2,
    "width": 38,
    "x": 974,
    "y": 170
  },
  "fire_station_11": {
    "height": 32,
    "pixelRatio": 2,
    "width": 32,
    "x": 672,
    "y": 370
  },
  "fire_station_15": {
    "height": 40,
    "pixelRatio": 2,
    "width": 40,
    "x": 456,
    "y": 0
  },
  "fuel_11": {
    "height": 30,
    "pixelRatio": 2,
    "width": 30,
    "x": 300,
    "y": 490
  },
  "fuel_15": {
    "height": 38,
    "pixelRatio": 2,
    "width": 38,
    "x": 480,
    "y": 210
  },
  "garden_11": {
    "height": 32,
    "pixelRatio": 2,
    "width": 32,
    "x": 704,
    "y": 370
  },
  "garden_15": {
    "height": 40,
    "pixelRatio": 2,
    "width": 40,
    "x": 0,
    "y": 250
  },
  "gate-11": {
    "height": 30,
    "pixelRatio": 2,
    "width": 30,
    "x": 330,
    "y": 490
  },
  "gate-15": {
    "height": 38,
    "pixelRatio": 2,
    "width": 38,
    "x": 518,
    "y": 210
  },
  "gate_11": {
    "height": 32,
    "pixelRatio": 2,
    "width": 32,
    "x": 736,
    "y": 370
  },
  "gate_15": {
    "height": 40,
    "pixelRatio": 2,
    "width": 40,
    "x": 40,
    "y": 250
  },
  "gift_11": {
    "height": 32,
    "pixelRatio": 2,
    "width": 32,
    "x": 768,
    "y": 370
  },
  "gift_15": {
    "height": 40,
    "pixelRatio": 2,
    "width": 40,
    "x": 80,
    "y": 250
  },
  "golf_11": {
    "height": 32,
    "pixelRatio": 2,
    "width": 32,
    "x": 800,
    "y": 370
  },
  "golf_15": {
    "height": 40,
    "pixelRatio": 2,
    "width": 40,
    "x": 120,
    "y": 250
  },
  "grocery_11": {
    "height": 32,
    "pixelRatio": 2,
    "width": 32,
    "x": 832,
    "y": 370
  },
  "grocery_15": {
    "height": 40,
    "pixelRatio": 2,
    "width": 40,
    "x": 160,
    "y": 250
  },
  "hairdresser_11": {
    "height": 32,
    "pixelRatio": 2,
    "width": 32,
    "x": 864,
    "y": 370
  },
  "hairdresser_15": {
    "height": 40,
    "pixelRatio": 2,
    "width": 40,
    "x": 200,
    "y": 250
  },
  "harbor_11": {
    "height": 30,
    "pixelRatio": 2,
    "width": 30,
    "x": 360,
    "y": 490
  },
  "harbor_15": {
    "height": 38,
    "pixelRatio": 2,
    "width": 38,
    "x": 556,
    "y": 210
  },
  "heart_11": {
    "height": 32,
    "pixelRatio": 2,
    "width": 32,
    "x": 896,
    "y": 370
  },
  "heart_15": {
    "height": 40,
    "pixelRatio": 2,
    "width": 40,
    "x": 240,
    "y": 250
  },
  "heliport_11": {
    "height": 30,
    "pixelRatio": 2,
    "width": 30,
    "x": 390,
    "y": 490
  },
  "heliport_15": {
    "height": 38,
    "pixelRatio": 2,
    "width": 38,
    "x": 594,
    "y": 210
  },
  "hospital_11": {
    "height": 32,
    "pixelRatio": 2,
    "width": 32,
    "x": 928,
    "y": 370
  },
  "hospital_15": {
    "height": 40,
    "pixelRatio": 2,
    "width": 40,
    "x": 280,
    "y": 250
  },
  "ice_cream_11": {
    "height": 32,
    "pixelRatio": 2,
    "width": 32,
    "x": 960,
    "y": 370
  },
  "ice_cream_15": {
    "height": 40,
    "pixelRatio": 2,
    "width": 40,
    "x": 320,
    "y": 250
  },
  "industry_11": {
    "height": 32,
    "pixelRatio": 2,
    "width": 32,
    "x": 992,
    "y": 370
  },
  "industry_15": {
    "height": 40,
    "pixelRatio": 2,
    "width": 40,
    "x": 360,
    "y": 250
  },
  "info_board-11": {
    "height": 30,
    "pixelRatio": 2,
    "width": 30,
    "x": 420,
    "y": 490
  },
  "info_board-15": {
    "height": 38,
    "pixelRatio": 2,
    "width": 38,
    "x": 632,
    "y": 210
  },
  "info_board_11": {
    "height": 32,
    "pixelRatio": 2,
    "width": 32,
    "x": 480,
    "y": 410
  },
  "info_board_15": {
    "height": 40,
    "pixelRatio": 2,
    "width": 40,
    "x": 400,
    "y": 250
  },
  "information_11": {
    "height": 32,
    "pixelRatio": 2,
    "width": 32,
    "x": 512,
    "y": 410
  },
  "information_15": {
    "height": 40,
    "pixelRatio": 2,
    "width": 40,
    "x": 440,
    "y": 250
  },
  "laundry_11": {
    "height": 32,
    "pixelRatio": 2,
    "width": 32,
    "x": 544,
    "y": 410
  },
  "laundry_15": {
    "height": 40,
    "pixelRatio": 2,
    "width": 40,
    "x": 0,
    "y": 290
  },
  "library_11": {
    "height": 32,
    "pixelRatio": 2,
    "width": 32,
    "x": 576,
    "y": 410
  },
  "library_15": {
    "height": 40,
    "pixelRatio": 2,
    "width": 40,
    "x": 40,
    "y": 290
  },
  "lift_gate-11": {
    "height": 30,
    "pixelRatio": 2,
    "width": 30,
    "x": 450,
    "y": 490
  },
  "lift_gate-15": {
    "height": 38,
    "pixelRatio": 2,
    "width": 38,
    "x": 670,
    "y": 210
  },
  "lift_gate_11": {
    "height": 32,
    "pixelRatio": 2,
    "width": 32,
    "x": 608,
    "y": 410
  },
  "lift_gate_15": {
    "height": 40,
    "pixelRatio": 2,
    "width": 40,
    "x": 80,
    "y": 290
  },
  "lighthouse_11": {
    "height": 32,
    "pixelRatio": 2,
    "width": 32,
    "x": 640,
    "y": 410
  },
  "lighthouse_15": {
    "height": 40,
    "pixelRatio": 2,
    "width": 40,
    "x": 120,
    "y": 290
  },
  "lodging_11": {
    "height": 32,
    "pixelRatio": 2,
    "width": 32,
    "x": 672,
    "y": 410
  },
  "lodging_15": {
    "height": 40,
    "pixelRatio": 2,
    "width": 40,
    "x": 160,
    "y": 290
  },
  "marker_11": {
    "height": 32,
    "pixelRatio": 2,
    "width": 32,
    "x": 704,
    "y": 410
  },
  "marker_15": {
    "height": 40,
    "pixelRatio": 2,
    "width": 40,
    "x": 200,
    "y": 290
  },
  "monument_11": {
    "height": 32,
    "pixelRatio": 2,
    "width": 32,
    "x": 736,
    "y": 410
  },
  "monument_15": {
    "height": 40,
    "pixelRatio": 2,
    "width": 40,
    "x": 240,
    "y": 290
  },
  "mountain_11": {
    "height": 32,
    "pixelRatio": 2,
    "width": 32,
    "x": 768,
    "y": 410
  },
  "mountain_15": {
    "height": 40,
    "pixelRatio": 2,
    "width": 40,
    "x": 280,
    "y": 290
  },
  "museum_11": {
    "height": 32,
    "pixelRatio": 2,
    "width": 32,
    "x": 800,
    "y": 410
  },
  "museum_15": {
    "height": 40,
    "pixelRatio": 2,
    "width": 40,
    "x": 320,
    "y": 290
  },
  "music_11": {
    "height": 32,
    "pixelRatio": 2,
    "width": 32,
    "x": 832,
    "y": 410
  },
  "music_15": {
    "height": 40,
    "pixelRatio": 2,
    "width": 40,
    "x": 360,
    "y": 290
  },
  "park_11": {
    "height": 32,
    "pixelRatio": 2,
    "width": 32,
    "x": 864,
    "y": 410
  },
  "park_15": {
    "height": 40,
    "pixelRatio": 2,
    "width": 40,
    "x": 400,
    "y": 290
  },
  "parking_11": {
    "height": 30,
    "pixelRatio": 2,
    "width": 30,
    "x": 480,
    "y": 490
  },
  "parking_15": {
    "height": 38,
    "pixelRatio": 2,
    "width": 38,
    "x": 708,
    "y": 210
  },
  "parking_garage_11": {
    "height": 30,
    "pixelRatio": 2,
    "width": 30,
    "x": 510,
    "y": 490
  },
  "parking_garage_15": {
    "height": 38,
    "pixelRatio": 2,
    "width": 38,
    "x": 746,
    "y": 210
  },
  "pedestrian_polygon": {
    "height": 128,
    "pixelRatio": 2,
    "width": 128,
    "x": 0,
    "y": 0
  },
  "pharmacy_11": {
    "height": 32,
    "pixelRatio": 2,
    "width": 32,
    "x": 896,
    "y": 410
  },
  "pharmacy_15": {
    "height": 40,
    "pixelRatio": 2,
    "width": 40,
    "x": 440,
    "y": 290
  },
  "picnic_site_11": {
    "height": 32,
    "pixelRatio": 2,
    "width": 32,
    "x": 928,
    "y": 410
  },
  "picnic_site_15": {
    "height": 40,
    "pixelRatio": 2,
    "width": 40,
    "x": 0,
    "y": 330
  },
  "pitch_11": {
    "height": 32,
    "pixelRatio": 2,
    "width": 32,
    "x": 960,
    "y": 410
  },
  "pitch_15": {
    "height": 40,
    "pixelRatio": 2,
    "width": 40,
    "x": 40,
    "y": 330
  },
  "place_of_worship_11": {
    "height": 32,
    "pixelRatio": 2,
    "width": 32,
    "x": 992,
    "y": 410
  },
  "place_of_worship_15": {
    "height": 40,
    "pixelRatio": 2,
    "width": 40,
    "x": 80,
    "y": 330
  },
  "playground_11": {
    "height": 32,
    "pixelRatio": 2,
    "width": 32,
    "x": 478,
    "y": 450
  },
  "playground_15": {
    "height": 40,
    "pixelRatio": 2,
    "width": 40,
    "x": 120,
    "y": 330
  },
  "police_11": {
    "height": 32,
    "pixelRatio": 2,
    "width": 32,
    "x": 510,
    "y": 450
  },
  "police_15": {
    "height": 40,
    "pixelRatio": 2,
    "width": 40,
    "x": 160,
    "y": 330
  },
  "post_11": {
    "height": 32,
    "pixelRatio": 2,
    "width": 32,
    "x": 542,
    "y": 450
  },
  "post_15": {
    "height": 40,
    "pixelRatio": 2,
    "width": 40,
    "x": 200,
    "y": 330
  },
  "prison_11": {
    "height": 32,
    "pixelRatio": 2,
    "width": 32,
    "x": 574,
    "y": 450
  },
  "prison_15": {
    "height": 40,
    "pixelRatio": 2,
    "width": 40,
    "x": 240,
    "y": 330
  },
  "railway_11": {
    "height": 30,
    "pixelRatio": 2,
    "width": 30,
    "x": 540,
    "y": 490
  },
  "railway_15": {
    "height": 38,
    "pixelRatio": 2,
    "width": 38,
    "x": 784,
    "y": 210
  },
  "railway_light_11": {
    "height": 30,
    "pixelRatio": 2,
    "width": 30,
    "x": 570,
    "y": 490
  },
  "railway_light_15": {
    "height": 38,
    "pixelRatio": 2,
    "width": 38,
    "x": 822,
    "y": 210
  },
  "railway_metro_11": {
    "height": 30,
    "pixelRatio": 2,
    "width": 30,
    "x": 600,
    "y": 490
  },
  "railway_metro_15": {
    "height": 38,
    "pixelRatio": 2,
    "width": 38,
    "x": 860,
    "y": 210
  },
  "ranger_station_11": {
    "height": 32,
    "pixelRatio": 2,
    "width": 32,
    "x": 606,
    "y": 450
  },
  "ranger_station_15": {
    "height": 40,
    "pixelRatio": 2,
    "width": 40,
    "x": 280,
    "y": 330
  },
  "recycling-11": {
    "height": 30,
    "pixelRatio": 2,
    "width": 30,
    "x": 630,
    "y": 490
  },
  "recycling-15": {
    "height": 38,
    "pixelRatio": 2,
    "width": 38,
    "x": 898,
    "y": 210
  },
  "recycling_11": {
    "height": 32,
    "pixelRatio": 2,
    "width": 32,
    "x": 638,
    "y": 450
  },
  "recycling_15": {
    "height": 40,
    "pixelRatio": 2,
    "width": 40,
    "x": 320,
    "y": 330
  },
  "religious_christian_11": {
    "height": 32,
    "pixelRatio": 2,
    "width": 32,
    "x": 670,
    "y": 450
  },
  "religious_christian_15": {
    "height": 40,
    "pixelRatio": 2,
    "width": 40,
    "x": 360,
    "y": 330
  },
  "religious_jewish_11": {
    "height": 32,
    "pixelRatio": 2,
    "width": 32,
    "x": 702,
    "y": 450
  },
  "religious_jewish_15": {
    "height": 40,
    "pixelRatio": 2,
    "width": 40,
    "x": 400,
    "y": 330
  },
  "religious_muslim_11": {
    "height": 32,
    "pixelRatio": 2,
    "width": 32,
    "x": 734,
    "y": 450
  },
  "religious_muslim_15": {
    "height": 40,
    "pixelRatio": 2,
    "width": 40,
    "x": 440,
    "y": 330
  },
  "restaurant_11": {
    "height": 32,
    "pixelRatio": 2,
    "width": 32,
    "x": 766,
    "y": 450
  },
  "restaurant_15": {
    "height": 40,
    "pixelRatio": 2,
    "width": 40,
    "x": 0,
    "y": 370
  },
  "roadblock_11": {
    "height": 32,
    "pixelRatio": 2,
    "width": 32,
    "x": 798,
    "y": 450
  },
  "roadblock_15": {
    "height": 40,
    "pixelRatio": 2,
    "width": 40,
    "x": 40,
    "y": 370
  },
  "rocket_11": {
    "height": 32,
    "pixelRatio": 2,
    "width": 32,
    "x": 830,
    "y": 450
  },
  "rocket_15": {
    "height": 40,
    "pixelRatio": 2,
    "width": 40,
    "x": 80,
    "y": 370
  },
  "ruins_11": {
    "height": 32,
    "pixelRatio": 2,
    "width": 32,
    "x": 862,
    "y": 450
  },
  "ruins_15": {
    "height": 40,
    "pixelRatio": 2,
    "width": 40,
    "x": 120,
    "y": 370
  },
  "saddle-11": {
    "height": 30,
    "pixelRatio": 2,
    "width": 30,
    "x": 660,
    "y": 490
  },
  "saddle-15": {
    "height": 38,
    "pixelRatio": 2,
    "width": 38,
    "x": 936,
    "y": 210
  },
  "saddle_11": {
    "height": 32,
    "pixelRatio": 2,
    "width": 32,
    "x": 894,
    "y": 450
  },
  "saddle_15": {
    "height": 40,
    "pixelRatio": 2,
    "width": 40,
    "x": 160,
    "y": 370
  },
  "school_11": {
    "height": 32,
    "pixelRatio": 2,
    "width": 32,
    "x": 926,
    "y": 450
  },
  "school_15": {
    "height": 40,
    "pixelRatio": 2,
    "width": 40,
    "x": 200,
    "y": 370
  },
  "shelter_11": {
    "height": 32,
    "pixelRatio": 2,
    "width": 32,
    "x": 958,
    "y": 450
  },
  "shelter_15": {
    "height": 40,
    "pixelRatio": 2,
    "width": 40,
    "x": 240,
    "y": 370
  },
  "shop_11": {
    "height": 32,
    "pixelRatio": 2,
    "width": 32,
    "x": 990,
    "y": 450
  },
  "shop_15": {
    "height": 40,
    "pixelRatio": 2,
    "width": 40,
    "x": 280,
    "y": 370
  },
  "skateboarding-11": {
    "height": 30,
    "pixelRatio": 2,
    "width": 30,
    "x": 690,
    "y": 490
  },
  "skateboarding-15": {
    "height": 38,
    "pixelRatio": 2,
    "width": 38,
    "x": 974,
    "y": 210
  },
  "skateboarding_11": {
    "height": 32,
    "pixelRatio": 2,
    "width": 32,
    "x": 490,
    "y": 128
  },
  "skateboarding_15": {
    "height": 40,
    "pixelRatio": 2,
    "width": 40,
    "x": 320,
    "y": 370
  },
  "skiing_11": {
    "height": 32,
    "pixelRatio": 2,
    "width": 32,
    "x": 522,
    "y": 128
  },
  "skiing_15": {
    "height": 40,
    "pixelRatio": 2,
    "width": 40,
    "x": 360,
    "y": 370
  },
  "soccer_11": {
    "height": 32,
    "pixelRatio": 2,
    "width": 32,
    "x": 554,
    "y": 128
  },
  "soccer_15": {
    "height": 40,
    "pixelRatio": 2,
    "width": 40,
    "x": 400,
    "y": 370
  },
  "square-stroke_11": {
    "height": 34,
    "pixelRatio": 2,
    "width": 34,
    "x": 480,
    "y": 290
  },
  "square-stroke_15": {
    "height": 42,
    "pixelRatio": 2,
    "width": 42,
    "x": 84,
    "y": 128
  },
  "square_11": {
    "height": 32,
    "pixelRatio": 2,
    "width": 32,
    "x": 586,
    "y": 128
  },
  "square_15": {
    "height": 40,
    "pixelRatio": 2,
    "width": 40,
    "x": 440,
    "y": 370
  },
  "square_stroke_11": {
    "height": 32,
    "pixelRatio": 2,
    "width": 32,
    "x": 618,
    "y": 128
  },
  "square_stroke_15": {
    "height": 40,
    "pixelRatio": 2,
    "width": 40,
    "x": 0,
    "y": 410
  },
  "stadium_11": {
    "height": 32,
    "pixelRatio": 2,
    "width": 32,
    "x": 650,
    "y": 128
  },
  "stadium_15": {
    "height": 40,
    "pixelRatio": 2,
    "width": 40,
    "x": 40,
    "y": 410
  },
  "star-stroke_11": {
    "height": 34,
    "pixelRatio": 2,
    "width": 34,
    "x": 514,
    "y": 290
  },
  "star-stroke_15": {
    "height": 42,
    "pixelRatio": 2,
    "width": 42,
    "x": 126,
    "y": 128
  },
  "star_11": {
    "height": 32,
    "pixelRatio": 2,
    "width": 32,
    "x": 682,
    "y": 128
  },
  "star_15": {
    "height": 40,
    "pixelRatio": 2,
    "width": 40,
    "x": 80,
    "y": 410
  },
  "star_stroke_11": {
    "height": 32,
    "pixelRatio": 2,
    "width": 32,
    "x": 714,
    "y": 128
  },
  "star_stroke_15": {
    "height": 40,
    "pixelRatio": 2,
    "width": 40,
    "x": 120,
    "y": 410
  },
  "suitcase_11": {
    "height": 32,
    "pixelRatio": 2,
    "width": 32,
    "x": 746,
    "y": 128
  },
  "suitcase_15": {
    "height": 40,
    "pixelRatio": 2,
    "width": 40,
    "x": 160,
    "y": 410
  },
  "sushi_11": {
    "height": 32,
    "pixelRatio": 2,
    "width": 32,
    "x": 778,
    "y": 128
  },
  "sushi_15": {
    "height": 40,
    "pixelRatio": 2,
    "width": 40,
    "x": 200,
    "y": 410
  },
  "swimming_11": {
    "height": 32,
    "pixelRatio": 2,
    "width": 32,
    "x": 810,
    "y": 128
  },
  "swimming_15": {
    "height": 40,
    "pixelRatio": 2,
    "width": 40,
    "x": 240,
    "y": 410
  },
  "telephone_11": {
    "height": 32,
    "pixelRatio": 2,
    "width": 32,
    "x": 842,
    "y": 128
  },
  "telephone_15": {
    "height": 40,
    "pixelRatio": 2,
    "width": 40,
    "x": 280,
    "y": 410
  },
  "tennis_11": {
    "height": 32,
    "pixelRatio": 2,
    "width": 32,
    "x": 874,
    "y": 128
  },
  "tennis_15": {
    "height": 40,
    "pixelRatio": 2,
    "width": 40,
    "x": 320,
    "y": 410
  },
  "theatre_11": {
    "height": 32,
    "pixelRatio": 2,
    "width": 32,
    "x": 906,
    "y": 128
  },
  "theatre_15": {
    "height": 40,
    "pixelRatio": 2,
    "width": 40,
    "x": 360,
    "y": 410
  },
  "toilet_11": {
    "height": 32,
    "pixelRatio": 2,
    "width": 32,
    "x": 938,
    "y": 128
  },
  "toilet_15": {
    "height": 40,
    "pixelRatio": 2,
    "width": 40,
    "x": 400,
    "y": 410
  },
  "toll_booth_11": {
    "height": 32,
    "pixelRatio": 2,
    "width": 32,
    "x": 970,
    "y": 128
  },
  "toll_booth_15": {
    "height": 40,
    "pixelRatio": 2,
    "width": 40,
    "x": 440,
    "y": 410
  },
  "town-hall_11": {
    "height": 30,
    "pixelRatio": 2,
    "width": 30,
    "x": 720,
    "y": 490
  },
  "town-hall_15": {
    "height": 38,
    "pixelRatio": 2,
    "width": 38,
    "x": 480,
    "y": 250
  },
  "town_hall_11": {
    "height": 32,
    "pixelRatio": 2,
    "width": 32,
    "x": 496,
    "y": 0
  },
  "town_hall_15": {
    "height": 40,
    "pixelRatio": 2,
    "width": 40,
    "x": 0,
    "y": 450
  },
  "triangle_11": {
    "height": 32,
    "pixelRatio": 2,
    "width": 32,
    "x": 528,
    "y": 0
  },
  "triangle_15": {
    "height": 40,
    "pixelRatio": 2,
    "width": 40,
    "x": 40,
    "y": 450
  },
  "triangle_stroked_11": {
    "height": 32,
    "pixelRatio": 2,
    "width": 32,
    "x": 560,
    "y": 0
  },
  "triangle_stroked_15": {
    "height": 40,
    "pixelRatio": 2,
    "width": 40,
    "x": 80,
    "y": 450
  },
  "veterinary_11": {
    "height": 32,
    "pixelRatio": 2,
    "width": 32,
    "x": 592,
    "y": 0
  },
  "veterinary_15": {
    "height": 40,
    "pixelRatio": 2,
    "width": 40,
    "x": 120,
    "y": 450
  },
  "viewpoint_11": {
    "height": 32,
    "pixelRatio": 2,
    "width": 32,
    "x": 624,
    "y": 0
  },
  "viewpoint_15": {
    "height": 40,
    "pixelRatio": 2,
    "width": 40,
    "x": 160,
    "y": 450
  },
  "volcano_11": {
    "height": 32,
    "pixelRatio": 2,
    "width": 32,
    "x": 656,
    "y": 0
  },
  "volcano_15": {
    "height": 40,
    "pixelRatio": 2,
    "width": 40,
    "x": 200,
    "y": 450
  },
  "warehouse_11": {
    "height": 32,
    "pixelRatio": 2,
    "width": 32,
    "x": 688,
    "y": 0
  },
  "warehouse_15": {
    "height": 40,
    "pixelRatio": 2,
    "width": 40,
    "x": 240,
    "y": 450
  },
  "waste_basket_11": {
    "height": 32,
    "pixelRatio": 2,
    "width": 32,
    "x": 720,
    "y": 0
  },
  "waste_basket_15": {
    "height": 40,
    "pixelRatio": 2,
    "width": 40,
    "x": 280,
    "y": 450
  },
  "water_11": {
    "height": 34,
    "pixelRatio": 2,
    "width": 34,
    "x": 548,
    "y": 290
  },
  "water_15": {
    "height": 42,
    "pixelRatio": 2,
    "width": 42,
    "x": 168,
    "y": 128
  },
  "wetland_11": {
    "height": 32,
    "pixelRatio": 2,
    "width": 32,
    "x": 752,
    "y": 0
  },
  "wetland_15": {
    "height": 40,
    "pixelRatio": 2,
    "width": 40,
    "x": 320,
    "y": 450
  },
  "wheelchair_11": {
    "height": 32,
    "pixelRatio": 2,
    "width": 32,
    "x": 784,
    "y": 0
  },
  "wheelchair_15": {
    "height": 40,
    "pixelRatio": 2,
    "width": 40,
    "x": 360,
    "y": 450
  },
  "wilderness_polygon": {
    "height": 128,
    "pixelRatio": 2,
    "width": 128,
    "x": 128,
    "y": 0
  },
  "zoo_11": {
    "height": 32,
    "pixelRatio": 2,
    "width": 32,
    "x": 816,
    "y": 0
  },
  "zoo_15": {
    "height": 40,
    "pixelRatio": 2,
    "width": 40,
    "x": 400,
    "y": 450
  }
}